﻿Build started Tue, Jun 7 10:45:47 pm.
     1>Project "C:\Users\Geoff\sigil\examples\sound\vc2012\sound-vc2012.vcxproj" on node 2 (Rebuild target(s)).
     1>ClCompile:
         C:\Program Files (x86)\Microsoft Visual Studio 11.0\VC\bin\CL.exe /c /I../../../include /ZI /nologo /W3 /WX- /sdl /Od /Oy- /D _MBCS /Gm /EHsc /RTC1 /MDd /GS /fp:precise /Zc:wchar_t /Zc:forScope /Fo"Debug\\" /Fd"Debug\vc110.pdb" /Gd /TP /analyze- /errorReport:prompt ..\sound.cpp
         sound.cpp
       Link:
         C:\Program Files (x86)\Microsoft Visual Studio 11.0\VC\bin\link.exe /ERRORREPORT:PROMPT /OUT:"C:\Users\Geoff\sigil\examples\sound\vc2012\Debug\sound-vc2012.exe" /INCREMENTAL /NOLOGO lib/sigil.lib kernel32.lib user32.lib gdi32.lib winspool.lib comdlg32.lib advapi32.lib shell32.lib ole32.lib oleaut32.lib uuid.lib odbc32.lib odbccp32.lib /MANIFEST /MANIFESTUAC:"level='asInvoker' uiAccess='false'" /manifest:embed /DEBUG /PDB:"C:\Users\Geoff\sigil\examples\sound\vc2012\Debug\sound-vc2012.pdb" /TLBID:1 /DYNAMICBASE /NXCOMPAT /IMPLIB:"C:\Users\Geoff\sigil\examples\sound\vc2012\Debug\sound-vc2012.lib" /MACHINE:X86 Debug\sound.obj
         sound-vc2012.vcxproj -> C:\Users\Geoff\sigil\examples\sound\vc2012\Debug\sound-vc2012.exe
     1>Done Building Project "C:\Users\Geoff\sigil\examples\sound\vc2012\sound-vc2012.vcxproj" (Rebuild target(s)).

Build succeeded.

Time Elapsed 00:00:01.45
